<?xml version="1.0" encoding="UTF-8"?>
<session version="1.0">
<refactoring comment="Delete 3 resources" deleteContents="true" description="Delete 3 resources" element1="/SimpleSample" element2="/SimpleSample2" element3="/SimpleSample3" flags="7" id="org.eclipse.ltk.core.refactoring.delete.resources" resources="3" stamp="1444653801281"/>
</session>