<?xml version="1.0" encoding="UTF-8"?>
<session version="1.0">
<refactoring comment="Rename package &apos;pl.horbo.Program1&apos; to &apos;pl.horbo.Program2&apos;&#x0D;&#x0A;- Original project: &apos;Zajecia2&apos;&#x0D;&#x0A;- Original element: &apos;Zajecia2/src/pl.horbo.Program1&apos;&#x0D;&#x0A;- Renamed element: &apos;Zajecia2/src/pl.horbo.Program2&apos;&#x0D;&#x0A;- Update references to refactored element&#x0D;&#x0A;- Update textual occurrences in comments and strings&#x0D;&#x0A;- Rename subpackages of the package" description="Rename package &apos;pl.horbo.Program1&apos;" flags="589830" hierarchical="true" id="org.eclipse.jdt.ui.rename.package" input="/src&lt;pl.horbo.Program1" name="pl.horbo.Program2" qualified="false" references="true" stamp="1448207026767" textual="false" version="1.0"/>
</session>